…
``` r
#summary of species counts by transect
all.data %>% group_by(SurveyID) %>% summarise(total = sum(Count))
```

    ## `summarise()` ungrouping output (override with `.groups` argument)

    ## # A tibble: 83 x 2
    ##    SurveyID  total
    ##    <chr>     <dbl>
    ##  1 Explore1      3
    ##  2 Explore2      8
    ##  3 Explore3      6
    ##  4 Explore4    168
    ##  5 Explore5     84
    ##  6 H010-CA-V    15
    ##  7 H011-CA-V     4
    ##  8 H015-CA-V    13
    ##  9 H016-CA-V    16
    ## 10 H017-CA-V    25
    ## # ... with 73 more rows
…
TRANSECT WIDTHS

``` r
areas
```

    ## # A tibble: 86 x 2
    ##    Survey.abbrv transect.area
    ##    <chr>                <dbl>
    ##  1 Exp1_P1               681.
    ##  2 Exp2_P1               838.
    ##  3 Exp3_P1              1146.
    ##  4 Exp4_P1              1239.
    ##  5 Exp5_P1              1681.
    ##  6 H010_P1              1372.
    ##  7 H011_P1              1472.
    ##  8 H015_P1               263.
    ##  9 H015_P2               938.
    ## 10 H016_P1              1253.
    ## # ... with 76 more rows
…
