ROV fish densities
…
Number of fish seen by transect

## `summarise()` ungrouping output (override with `.groups` argument)

## # A tibble: 83 x 2
##    SurveyID  total
##    <chr>     <dbl>
##  1 Explore1      3
##  2 Explore2      8
##  3 Explore3      6
##  4 Explore4    168
##  5 Explore5     84
##  6 H010-CA-V    15
##  7 H011-CA-V     4
##  8 H015-CA-V    13
##  9 H016-CA-V    16
## 10 H017-CA-V    25
## # ... with 73 more rows
…
FISH OCCURANCES IN RELATION TO SUBSTRATE

## `summarise()` regrouping output by 'Survey.abbrv', 'Species', 'RCA', 'NAME', 'AREA', 'simple.sub' (override with `.groups` argument)

## `summarise()` regrouping output by 'Survey.abbrv', 'RCA' (override with `.groups` argument)

## # A tibble: 219 x 5
## # Groups:   Survey.abbrv, RCA [86]
##    Survey.abbrv RCA   sub.types           all.fish     n
##    <chr>        <chr> <chr>                  <dbl> <dbl>
##  1 Exp1_P1      OUT   rock_bare                  3     3
##  2 Exp2_P1      IN    rock_bare                  8     8
##  3 Exp3_P1      IN    rock_bare                  6     6
##  4 Exp4_P1      OUT   mixed coarse_bare         26   168
##  5 Exp4_P1      OUT   mixed fine_bare            4   168
##  6 Exp4_P1      OUT   rock_bare                136   168
##  7 Exp4_P1      OUT   rock_encrusting            2   168
##  8 Exp5_P1      OUT   mixed coarse_bare          6    84
##  9 Exp5_P1      OUT   mixed fine_bare           11    84
## 10 Exp5_P1      OUT   mixed fine_emergent       12    84
## # ... with 209 more rows
…
